{
    "build_type": {
        "house": {
            "sv_id": "house",
            "svname": "戸建て"
        },
        "building": {
            "sv_id": "building",
            "svname": "集合住宅、ビル"
        }
    },
    "servicer": {
        "ntte": {
            "sv_id": "ntte",
            "svname": "NTT東日本"
        },
        "nttw": {
            "sv_id": "nttw",
            "svname": "NTT西日本"
        },
        "rj": {
            "sv_id": "rj",
            "svname": "リコージャパン"
        },
        "etc": {
            "sv_id": "etc",
            "svname": "その他"
        }
    },
    "line": {
        "none":{
            "sv_id": "none",
            "servicer_id": "etc",
            "svname": "なし",
            "build_type": "house",
            "conv_type": "new"
        },
        "e-fngfs":{
            "sv_id": "e-fngfs",
            "servicer_id": "ntte",
            "svname": "フレッツ光ネクスト　ギガファミリー・スマートタイプ",
            "build_type": "house",
            "conv_type": "trance",
            "tel_type": "ip",
            "monthly_price": 5700,
            "discount": [
                {
                    "dis_id": 1,
                    "name": "ギガ押し！割引(ファミリータイプ用）",
                    "price": -300
                },
                {
                    "dis_id": 2,
                    "name": "にねん割（ファミリータイプ用）",
                    "price": -700
                }
            ]
        },
        "e-fngmsn":{
            "sv_id": "e-fngmsn",
            "servicer_id": "ntte",
            "svname": "フレッツ光ネクスト　ギガマンション・スマートタイプ（ミニ）",
            "build_type": "building",
            "conv_type": "trance",
            "tel_type": "ip",
            "monthly_price": 4350,
            "discount": [
                {
                    "dis_id": 1,
                    "name": "ギガ押し！割引(マンションタイプ用）",
                    "price": -200
                },
                {
                    "dis_id": 2,
                    "name": "にねん割（マンションタイプ用）",
                    "price": -100
                }
            ]
        },
        "e-fngms1":{
            "sv_id": "e-fngms1",
            "servicer_id": "ntte",
            "svname": "フレッツ光ネクスト　ギガマンション・スマートタイプ（プラン1）",
            "build_type": "building",
            "conv_type": "trance",
            "tel_type": "ip",
            "monthly_price": 3750,
            "discount": [
                {
                    "dis_id": 1,
                    "name": "ギガ押し！割引(マンションタイプ用）",
                    "price": -200
                },
                {
                    "dis_id": 2,
                    "name": "にねん割（マンションタイプ用）",
                    "price": -100
                }
            ]
        },
        "e-fngms2":{
            "sv_id": "e-fngms2",
            "servicer_id": "ntte",
            "svname": "フレッツ光ネクスト　ギガマンション・スマートタイプ（プラン２）",
            "build_type": "building",
            "conv_type": "trance",
            "tel_type": "ip",
            "monthly_price": 3350,
            "discount": [
                {
                    "dis_id": 1,
                    "name": "ギガ押し！割引(マンションタイプ用）",
                    "price": -200
                },
                {
                    "dis_id": 2,
                    "name": "にねん割（マンションタイプ用）",
                    "price": -100
                }
            ]
        },
        "e-fnfg":{
            "sv_id": "e-fnfg",
            "servicer_id": "ntte",
            "svname": "フレッツ光ネクスト　ファミリー・ギガラインタイプ",
            "build_type": "house",
            "conv_type": "trance",
            "tel_type": "ip",
            "monthly_price": 5400
        },
        "e-fnmgm":{
            "sv_id": "e-fnmgm",
            "servicer_id": "ntte",
            "svname": "フレッツ光ネクスト　マンション・ギガラインタイプ（ミニ）",
            "build_type": "building",
            "conv_type": "trance",
            "tel_type": "ip",
            "monthly_price": 4050
        },
        "e-fnmg1":{
            "sv_id": "e-fnmg1",
            "servicer_id": "ntte",
            "svname": "フレッツ光ネクスト　マンション・ギガラインタイプ（プラン1）",
            "build_type": "building",
            "conv_type": "trance",
            "tel_type": "ip",
            "monthly_price": 3450
        },
        "e-fnmg2":{
            "sv_id": "e-fnmg2",
            "servicer_id": "ntte",
            "svname": "フレッツ光ネクスト　マンション・ギガラインタイプ（プラン２）",
            "build_type": "building",
            "conv_type": "trance",
            "tel_type": "ip",
            "monthly_price": 3050
        },
        "e-fnfh":{
            "sv_id": "e-fnfh",
            "servicer_id": "ntte",
            "svname": "フレッツ光ネクスト　ファミリータイプ/ファミリーハイスピード",
            "build_type": "house",
            "conv_type": "trance",
            "tel_type": "ip",
            "monthly_price": 5200
        },
        "e-fnmhvm":{
            "sv_id": "e-fnmhvm",
            "servicer_id": "ntte",
            "svname": "フレッツ光ネクスト　マンションタイプ/マンションハイスピード　VDSL方式/ひかり配線方式（ミニ）",
            "build_type": "building",
            "conv_type": "trance",
            "tel_type": "ip",
            "monthly_price": 3850
        },
        "e-fnmhv1":{
            "sv_id": "e-fnmhv1",
            "servicer_id": "ntte",
            "svname": "フレッツ光ネクスト　マンションタイプ/マンションハイスピード　VDSL方式/ひかり配線方式（プラン1）",
            "build_type": "building",
            "conv_type": "trance",
            "tel_type": "ip",
            "monthly_price": 3250
        },
        "e-fnmhv2":{
            "sv_id": "e-fnmhv2",
            "servicer_id": "ntte",
            "svname": "フレッツ光ネクスト　マンションタイプ/マンションハイスピード　VDSL方式/ひかり配線方式（プラン2）",
            "build_type": "building",
            "conv_type": "trance",
            "tel_type": "ip",
            "monthly_price": 2850
        },
        "e-fnmhlm":{
            "sv_id": "e-fnmhlm",
            "servicer_id": "ntte",
            "svname": "フレッツ光ネクスト　マンションタイプ/マンションハイスピード　LAN方式（ミニ）",
            "build_type": "building",
            "conv_type": "trance",
            "tel_type": "ip",
            "monthly_price": 3500
        },
        "e-fnmhl1":{
            "sv_id": "e-fnmhl1",
            "servicer_id": "ntte",
            "svname": "フレッツ光ネクスト　マンションタイプ/マンションハイスピード　LAN方式（プラン1）",
            "build_type": "building",
            "conv_type": "trance",
            "tel_type": "ip",
            "monthly_price": 2900
        },
        "e-fnmhl2":{
            "sv_id": "e-fnmhl2",
            "servicer_id": "ntte",
            "svname": "フレッツ光ネクスト　マンションタイプ/マンションハイスピード　LAN方式（プラン2）",
            "build_type": "building",
            "conv_type": "trance",
            "tel_type": "ip",
            "monthly_price": 2500
        },
        "e-fnb":{
            "sv_id": "e-fnb",
            "servicer_id": "ntte",
            "svname": "フレッツ光ネクスト　ビジネスタイプ",
            "build_type": "building",
            "conv_type": "trance",
            "tel_type": "ip",
            "monthly_price": 41100
        },
        "e-fnlf":{
            "sv_id": "e-fnlf",
            "servicer_id": "ntte",
            "svname": "フレッツ 光ライト　ファミリータイプ",
            "build_type": "house",
            "conv_type": "type_ch",
            "monthly_price": 2800
        },
        "e-bfhf":{
            "sv_id": "e-bfhf",
            "servicer_id": "ntte",
            "svname": "Bフレッツ　ハイパーファミリータイプ",
            "build_type": "house",
            "conv_type": "type_ch",
            "monthly_price": 5200
        },
        "e-bfmvm":{
            "sv_id": "e-bfmvm",
            "servicer_id": "ntte",
            "svname": "Bフレッツ　マンションタイプ・光配線方式／VDSL方式（ミニ）",
            "build_type": "building",
            "conv_type": "type_ch",
            "monthly_price": 3850
        },
        "e-bfmv1":{
            "sv_id": "e-bfmv1",
            "servicer_id": "ntte",
            "svname": "Bフレッツ　マンションタイプ・光配線方式／VDSL方式（プラン1）",
            "build_type": "building",
            "conv_type": "type_ch",
            "monthly_price": 3250
        },
        "e-bfmv2":{
            "sv_id": "e-bfmv2",
            "servicer_id": "ntte",
            "svname": "Bフレッツ　マンションタイプ・光配線方式／VDSL方式（プラン2）",
            "build_type": "building",
            "conv_type": "type_ch",
            "monthly_price": 2850
        },
        "e-bfmlm":{
            "sv_id": "e-bfmlm",
            "servicer_id": "ntte",
            "svname": "Bフレッツ　マンションタイプ・LAN方式（ミニ）",
            "build_type": "building",
            "conv_type": "type_ch",
            "monthly_price": 3500
        },
        "e-bfml1":{
            "sv_id": "e-bfml1",
            "servicer_id": "ntte",
            "svname": "Bフレッツ　マンションタイプ・LAN方式（プラン1）",
            "build_type": "building",
            "conv_type": "type_ch",
            "monthly_price": 2900
        },
        "e-bfml2":{
            "sv_id": "e-bfml2",
            "servicer_id": "ntte",
            "svname": "Bフレッツ　マンションタイプ・LAN方式（プラン2）",
            "build_type": "building",
            "conv_type": "type_ch",
            "monthly_price": 2500
        },
        "e-atm3":{
            "sv_id": "e-atm3",
            "servicer_id": "ntte",
            "svname": "フレッツADSL 電話共用型モアⅢ",
            "build_type": "house",
            "conv_type": "new",
            "monthly_price": 2800
        },
        "e-atm2":{
            "sv_id": "e-atm2",
            "servicer_id": "ntte",
            "svname": "フレッツADSL 電話共用型モアⅡ",
            "build_type": "house",
            "conv_type": "new",
            "monthly_price": 2750
        },
        "e-atm1":{
            "sv_id": "e-atm1",
            "servicer_id": "ntte",
            "svname": "フレッツADSL 電話共用型モア",
            "build_type": "house",
            "conv_type": "new",
            "monthly_price": 2700
        },
        "e-at8":{
            "sv_id": "e-at8",
            "servicer_id": "ntte",
            "svname": "フレッツADSL 電話共用型8M",
            "build_type": "house",
            "conv_type": "new",
            "monthly_price": 2650
        },
        "e-at16":{
            "sv_id": "e-at16",
            "servicer_id": "ntte",
            "svname": "フレッツADSL 電話共用型1.5M",
            "build_type": "house",
            "conv_type": "new",
            "monthly_price": 2600
        },
        "e-anm3":{
            "sv_id": "e-anm3",
            "servicer_id": "ntte",
            "svname": "フレッツADSL 専用型モアⅢ",
            "build_type": "house",
            "conv_type": "new",
            "monthly_price": 5050
        },
        "e-anm2":{
            "sv_id": "e-anm2",
            "servicer_id": "ntte",
            "svname": "フレッツADSL 専用型モアⅡ",
            "build_type": "house",
            "conv_type": "new",
            "monthly_price": 4950
        },
        "e-anm1":{
            "sv_id": "e-anm1",
            "servicer_id": "ntte",
            "svname": "フレッツADSL 専用型モア",
            "build_type": "house",
            "conv_type": "new",
            "monthly_price": 4850
        },
        "e-an8":{
            "sv_id": "e-an8",
            "servicer_id": "ntte",
            "svname": "フレッツADSL 専用型8M",
            "build_type": "house",
            "conv_type": "new",
            "monthly_price": 4750
        },
        "e-an16":{
            "sv_id": "e-an16",
            "servicer_id": "ntte",
            "svname": "フレッツADSL 専用型1.5M",
            "build_type": "house",
            "conv_type": "new",
            "monthly_price": 4550
        },
        "e-fi":{
            "sv_id": "e-fi",
            "servicer_id": "ntte",
            "svname": "フレッツ・ISDN",
            "build_type": "house",
            "conv_type": "new",
            "monthly_price": 2800
        },
        "w-fnf-h":{
            "sv_id": "w-fnf-h",
            "servicer_id": "nttw",
            "svname": "フレッツ光ネクスト　ファミリータイプ/ファミリーハイスピードタイプ/スーパーハイスピードタイプ 隼",
            "build_type": "house",
            "conv_type": "trance",
            "tel_type": "ip",
            "monthly_price": 5400
        },
        "w-fnmvm":{
            "sv_id": "w-fnmvm",
            "servicer_id": "nttw",
            "svname": "フレッツ光ネクスト　マンションタイプ・マンションハイスピードタイプ VDSL方式/ひかり配線方式（ミニ）",
            "build_type": "building",
            "conv_type": "trance",
            "tel_type": "ip",
            "monthly_price": 4500
        },
        "w-fnmv1":{
            "sv_id": "w-fnmv1",
            "servicer_id": "nttw",
            "svname": "フレッツ光ネクスト　マンションタイプ・マンションハイスピードタイプ VDSL方式/ひかり配線方式（プラン1）",
            "build_type": "building",
            "conv_type": "trance",
            "tel_type": "ip",
            "monthly_price": 3700
        },
        "w-fnmv2":{
            "sv_id": "w-fnmv2",
            "servicer_id": "nttw",
            "svname": "フレッツ光ネクスト　マンションタイプ・マンションハイスピードタイプ VDSL方式/ひかり配線方式（プラン2）",
            "build_type": "building",
            "conv_type": "trance",
            "tel_type": "ip",
            "monthly_price": 3200
        },
        "w-fnmlm":{
            "sv_id": "w-fnmlm",
            "servicer_id": "nttw",
            "svname": "フレッツ光ネクスト　マンションタイプ・マンションハイスピードタイプ LAN方式（ミニ）",
            "build_type": "building",
            "conv_type": "trance",
            "tel_type": "ip",
            "monthly_price": 3900
        },
        "w-fnml1":{
            "sv_id": "w-fnml1",
            "servicer_id": "nttw",
            "svname": "フレッツ光ネクスト　マンションタイプ・マンションハイスピードタイプ LAN方式（プラン1）",
            "build_type": "building",
            "conv_type": "trance",
            "tel_type": "ip",
            "monthly_price": 3100
        },
        "w-fnml2":{
            "sv_id": "w-fnml2",
            "servicer_id": "nttw",
            "svname": "フレッツ光ネクスト　マンションタイプ・マンションハイスピードタイプ LAN方式（プラン2）",
            "build_type": "building",
            "conv_type": "trance",
            "tel_type": "ip",
            "monthly_price": 2600
        },
        "w-fi":{
            "sv_id": "w-fi",
            "servicer_id": "nttw",
            "svname": "フレッツ・ISDN",
            "build_type": "building",
            "conv_type": "new",
            "monthly_price": 2800
        },
        "r-sf":{
            "sv_id": "r-sf",
            "servicer_id": "rj",
            "svname": "リコーひかり　スタンダードメニュー　ファミリータイプEast/West",
            "build_type": "house",
            "conv_type": "trance",
            "tel_type": "ip",
            "menu_type": "std",
            "monthly_price": 5800,
            "discount": [
                {
                    "dis_id": 1,
                    "name": "R割（スタンダード）",
                    "price": -800
                },
                {
                    "dis_id": 2,
                    "name": "ダブルR割（スタンダード）",
                    "price": -900
                }
            ],
            "repair_ops": [
                {
                    "sv_id": "repair_basic",
                    "svname": "基本メニュー",
                    "svcomment": "平日のみ　8:30～18:00",
                    "monthly_price": 0
                },
                {
                    "sv_id": "repair_basic",
                    "svname": "故障受付時間延長オプション",
                    "svcomment": "土・日・休日もOK、24時間対応",
                    "monthly_price": 3000
                }
            ],
            "construction": [
                {
                    "dispatches": [
                        {
                            "sv_id": "no_dispatch",
                            "svname": "派遣なし",
                            "const_cost": 26000
                        },
                        {
                            "sv_id": "dispatch",
                            "svname": "派遣あり",
                            "const_cost": 26000
                        }
                    ],
                    "disp_day": [
                        {
                            "sv_id": "disp_weekday",
                            "svname": "平日工事",
                            "const_cost": 0
                        },
                        {
                            "sv_id": "disp_weekend",
                            "svname": "土日祝日工事",
                            "const_cost": 3000
                        }
                    ],
                    "corp_res": [
                        {
                            "sv_id": "corp_day",
                            "svname": "日中帯",
                            "const_cost": 13000,
                            "const_cost_asextra": 11000,
                            "const_cost_weextra": 3000
                        },
                        {
                            "sv_id": "corp_night",
                            "svname": "夜間帯",
                            "const_cost": 16900,
                            "const_cost_asextra": 18000,
                            "const_cost_weextra": 3000
                        },
                        {
                            "sv_id": "corp_deepn",
                            "svname": "深夜帯",
                            "const_cost": 20800,
                            "const_cost_asextra": 28000,
                            "const_cost_weextra": 3000
                        }
                    ]
                }
            ]
        },
        "r-sm":{
            "sv_id": "r-sm",
            "servicer_id": "rj",
            "svname": "リコーひかり　スタンダードメニュー　マンションタイプEast/West",
            "build_type": "building",
            "conv_type": "trance",
            "tel_type": "ip",
            "menu_type": "std",
            "monthly_price": 4800,
            "discount": [
                {
                    "dis_id": 1,
                    "name": "R割（スタンダード）",
                    "price": -800
                },
                {
                    "dis_id": 2,
                    "name": "ダブルR割（スタンダード）",
                    "price": -900
                }
            ],
            "repair_ops": [
                {
                    "sv_id": "repair_basic",
                    "svname": "基本メニュー",
                    "svcomment": "平日のみ　8:30～18:00",
                    "monthly_price": 0
                },
                {
                    "sv_id": "repair_extra",
                    "svname": "故障受付時間延長オプション",
                    "svcomment": "土・日・休日もOK、24時間対応",
                    "monthly_price": 2000
                }
            ],
            "construction": [
                {
                    "dispatches": [
                        {
                            "sv_id": "no_dispatch",
                            "svname": "派遣なし",
                            "const_cost": 23000
                        },
                        {
                            "sv_id": "dispatch",
                            "svname": "派遣あり",
                            "const_cost": 23000
                        }
                    ],
                    "disp_day": [
                        {
                            "sv_id": "disp_weekday",
                            "svname": "平日工事",
                            "const_cost": 0
                        },
                        {
                            "sv_id": "disp_weekend",
                            "svname": "土日祝日工事",
                            "const_cost": 3000
                        }
                    ],
                    "corp_res": [
                        {
                            "sv_id": "corp_day",
                            "svname": "日中帯",
                            "const_cost": 13000,
                            "const_cost_asextra": 11000,
                            "const_cost_weextra": 3000
                        },
                        {
                            "sv_id": "corp_night",
                            "svname": "夜間帯",
                            "const_cost": 16900,
                            "const_cost_asextra": 18000,
                            "const_cost_weextra": 3000
                        },
                        {
                            "sv_id": "corp_deepn",
                            "svname": "深夜帯",
                            "const_cost": 20800,
                            "const_cost_asextra": 28000,
                            "const_cost_weextra": 3000
                        }
                    ]
                }
            ]
        },
        "r-af":{
            "sv_id": "r-af",
            "servicer_id": "rj",
            "svname": "リコーひかり　アクセスメニュー　ファミリータイプEast/West",
            "build_type": "house",
            "conv_type": "trance",
            "tel_type": "ip",
            "menu_type": "acc",
            "monthly_price": 4600,
            "discount": [
                {
                    "dis_id": 1,
                    "name": "R割（アクセス）",
                    "price": -300
                },
                {
                    "dis_id": 2,
                    "name": "ダブルR割（アクセス）",
                    "price": -500
                }
            ],
            "repair_ops": [
                {
                    "sv_id": "repair_basic",
                    "svname": "基本メニュー",
                    "svcomment": "平日のみ　8:30～18:00",
                    "monthly_price": 0
                },
                {
                    "sv_id": "repair_extra",
                    "svname": "故障受付時間延長オプション",
                    "svcomment": "土・日・休日もOK、24時間対応",
                    "monthly_price": 3000
                }
            ],
            "construction": [
                {
                    "dispatches": [
                        {
                            "sv_id": "no_dispatch",
                            "svname": "派遣なし",
                            "const_cost": 24000
                        },
                        {
                            "sv_id": "dispatch",
                            "svname": "派遣あり",
                            "const_cost": 24000
                        }
                    ],
                    "disp_day": [
                        {
                            "sv_id": "disp_weekday",
                            "svname": "平日工事",
                            "const_cost": 0
                        },
                        {
                            "sv_id": "disp_weekend",
                            "svname": "土日祝日工事",
                            "const_cost": 3000
                        }
                    ],
                    "corp_res": [
                        {
                            "sv_id": "corp_day",
                            "svname": "日中帯",
                            "const_cost": 13000,
                            "const_cost_asextra": 11000,
                            "const_cost_weextra": 3000
                        },
                        {
                            "sv_id": "corp_night",
                            "svname": "夜間帯",
                            "const_cost": 16900,
                            "const_cost_asextra": 18000,
                            "const_cost_weextra": 3000
                        },
                        {
                            "sv_id": "corp_deepn",
                            "svname": "深夜帯",
                            "const_cost": 20800,
                            "const_cost_asextra": 28000,
                            "const_cost_weextra": 3000
                        }
                    ]
                }
            ]
        },
        "r-am":{
            "sv_id": "r-am",
            "servicer_id": "rj",
            "svname": "リコーひかり　アクセスメニュー　マンションタイプEast/West",
            "build_type": "building",
            "conv_type": "trance",
            "tel_type": "ip",
            "menu_type": "acc",
            "monthly_price": 3600,
            "discount": [
                {
                    "dis_id": 1,
                    "name": "R割（アクセス）",
                    "price": -300
                },
                {
                    "dis_id": 2,
                    "name": "ダブルR割（アクセス）",
                    "price": -500
                }
            ],
            "construction": [
                {
                    "dispatches": [
                        {
                            "sv_id": "no_dispatch",
                            "svname": "派遣なし",
                            "const_cost": 21000
                        },
                        {
                            "sv_id": "dispatch",
                            "svname": "派遣あり",
                            "const_cost": 21000
                        }
                    ],
                    "disp_day": [
                        {
                            "sv_id": "disp_weekday",
                            "svname": "平日工事",
                            "const_cost": 0
                        },
                        {
                            "sv_id": "disp_weekend",
                            "svname": "土日祝日工事",
                            "const_cost": 3000
                        }
                    ],
                    "corp_res": [
                        {
                            "sv_id": "corp_day",
                            "svname": "日中帯",
                            "const_cost": 13000,
                            "const_cost_asextra": 11000,
                            "const_cost_weextra": 3000
                        },
                        {
                            "sv_id": "corp_night",
                            "svname": "夜間帯",
                            "const_cost": 16900,
                            "const_cost_asextra": 18000,
                            "const_cost_weextra": 3000
                        },
                        {
                            "sv_id": "corp_deepn",
                            "svname": "深夜帯",
                            "const_cost": 20800,
                            "const_cost_asextra": 28000,
                            "const_cost_weextra": 3000
                        }
                    ]
                }
            ]
        },
        "r-ssf": {
            "sv_id": "r-ssf",
            "servicer_id": "rj",
            "svname": "リコーひかり　スタンダードメニュー　スタートファミリータイプ",
            "build_type": "house",
            "conv_type": "trance",
            "tel_type": "ip",
            "menu_type": "std",
            "monthly_price": 4400,
            "monthly_price_max": 4400,
            "repair_ops": [
                {
                    "sv_id": "repair_basic",
                    "svname": "基本メニュー",
                    "svcomment": "平日のみ　8:30～18:00",
                    "monthly_price": 0
                },
                {
                    "sv_id": "repair_extra",
                    "svname": "故障受付時間延長オプション",
                    "svcomment": "土・日・休日もOK、24時間対応",
                    "monthly_price": 3000
                }
            ],
            "construction": [
                {
                    "dispatches": [
                        {
                            "sv_id": "no_dispatch",
                            "svname": "派遣なし",
                            "const_cost": 26000
                        },
                        {
                            "sv_id": "dispatch",
                            "svname": "派遣あり",
                            "const_cost": 26000
                        }
                    ],
                    "disp_day": [
                        {
                            "sv_id": "disp_weekday",
                            "svname": "平日工事",
                            "const_cost": 0
                        },
                        {
                            "sv_id": "disp_weekend",
                            "svname": "土日祝日工事",
                            "const_cost": 3000
                        }
                    ],
                    "corp_res": [
                        {
                            "sv_id": "corp_day",
                            "svname": "日中帯",
                            "const_cost": 13000,
                            "const_cost_asextra": 11000,
                            "const_cost_weextra": 3000
                        },
                        {
                            "sv_id": "corp_night",
                            "svname": "夜間帯",
                            "const_cost": 16900,
                            "const_cost_asextra": 18000,
                            "const_cost_weextra": 3000
                        },
                        {
                            "sv_id": "corp_deepn",
                            "svname": "深夜帯",
                            "const_cost": 20800,
                            "const_cost_asextra": 28000,
                            "const_cost_weextra": 3000
                        }
                    ]
                }
            ]
        },
        "r-asf":{
            "sv_id": "r-asf",
            "servicer_id": "rj",
            "svname": "リコーひかり　アクセスメニュー　スタートファミリータイプ",
            "build_type": "house",
            "conv_type": "trance",
            "tel_type": "ip",
            "menu_type": "acc",
            "monthly_price": 3300,
            "repair_ops": [
                {
                    "sv_id": "repair_basic",
                    "svname": "基本メニュー",
                    "svcomment": "平日のみ　8:30～18:00",
                    "monthly_price": 0
                },
                {
                    "sv_id": "repair_extra",
                    "svname": "故障受付時間延長オプション",
                    "svcomment": "土・日・休日もOK、24時間対応",
                    "monthly_price": 3000
                }
            ],
            "construction": [
                {
                    "dispatches": [
                        {
                            "sv_id": "no_dispatch",
                            "svname": "派遣なし",
                            "const_cost": 24000
                        },
                        {
                            "sv_id": "dispatch",
                            "svname": "派遣あり",
                            "const_cost": 24000
                        }
                    ],
                    "disp_day": [
                        {
                            "sv_id": "disp_weekday",
                            "svname": "平日工事",
                            "const_cost": 0
                        },
                        {
                            "sv_id": "disp_weekend",
                            "svname": "土日祝日工事",
                            "const_cost": 3000
                        }
                    ],
                    "corp_res": [
                        {
                            "sv_id": "corp_day",
                            "svname": "日中帯",
                            "const_cost": 13000,
                            "const_cost_asextra": 11000,
                            "const_cost_weextra": 3000
                        },
                        {
                            "sv_id": "corp_night",
                            "svname": "夜間帯",
                            "const_cost": 16900,
                            "const_cost_asextra": 18000,
                            "const_cost_weextra": 3000
                        },
                        {
                            "sv_id": "corp_deepn",
                            "svname": "深夜帯",
                            "const_cost": 20800,
                            "const_cost_asextra": 28000,
                            "const_cost_weextra": 3000
                        }
                    ]
                }
            ]
        }
    ,
    "isp": [
        {
            "sv_id": "nifty",
            "svname": "Nifty",
            "monthly_price": {
                "house": 1000,
                "bulding": 950
            }
        },
        {
            "sv_id": "asahinet",
            "svname": "AsahiNet",
            "monthly_price": {
                "house": 780,
                "bulding": 700
            }
        },
        {
            "sv_id": "bbexcite",
            "svname": "BBexcite",
            "monthly_price": {
                "house": 500,
                "bulding": 500
            }
        },
        {
            "sv_id": "biglobe",
            "svname": "BIGLOBE",
            "monthly_price": {
                "house": 1200,
                "bulding": 900
            }
        },
        {
            "sv_id": "dti",
            "svname": "DTI",
            "monthly_price": {
                "house": 951,
                "bulding": 680
            }
        },
        {
            "sv_id": "hiho",
            "svname": "hi-ho",
            "monthly_price": {
                "house": 1200,
                "bulding": 890
            }
        },
        {
            "sv_id": "ocn",
            "svname": "OCN",
            "monthly_price": {
                "house": 1100,
                "bulding": 900
            }
        },
        {
            "sv_id": "plala",
            "svname": "plala",
            "monthly_price": {
                "house": 1000,
                "bulding": 800
            }
        },
        {
            "sv_id": "sonet",
            "svname": "so-net",
            "monthly_price": {
                "house": 1000,
                "bulding": 900
            }
        },
        {
            "sv_id": "wakwak",
            "svname": "wakwak",
            "monthly_price": {
                "house": 950,
                "bulding": 600
            }
        },
        {
            "sv_id": "rp",
            "svname": "リコープロバイダー",
            "monthly_price": {
                "house": 800,
                "bulding": 800
            }
        }
    ],
    "tel": {
        "analog": {
            "sv_id": "analog",
            "svname": "アナログ電話",
            "tel_type": "non-ip",
            "monthly_price": 2400
        },
        "isdn": {
            "sv_id": "isdn",
            "svname": "ISDN",
            "tel_type": "non-ip",
            "monthly_price": 3530
        },
        "hikari_std": {
            "sv_id": "hikari_std",
            "svname": "ひかり電話",
            "tel_type": "ip",
            "monthly_price": 500,
            "min_nums": 1,
            "max_nums": 3,
            "nums_price": 100,
            "min_ch": 1,
            "max_ch": 2,
            "ch_price": 200
        },
        "hikari_a": {
            "sv_id": "hikari_a",
            "svname": "ひかり電話A",
            "tel_type": "ip",
            "monthly_price": 1500,
            "min_nums": 1,
            "max_nums": 3,
            "nums_price": 100,
            "min_ch": 1,
            "max_ch": 2,
            "ch_price": 200
        },
        "hikari_o": {
            "sv_id": "hikari_o",
            "svname": "ひかり電話オフィスタイプ",
            "tel_type": "ip",
            "monthly_price": 1300,
            "min_nums": 1,
            "max_nums": 32,
            "nums_price": 100,
            "min_ch": 3,
            "max_ch": 8,
            "ch_price": 400
        },
        "hikari_oa": {
            "sv_id": "hikari_oa",
            "svname": "ひかり電話オフィスA",
            "tel_type": "ip",
            "monthly_price": 1100,
            "min_nums": 1,
            "max_nums": 7000,
            "nums_price": 100,
            "min_ch": 1,
            "max_ch": 300,
            "ch_price": 1000
        }
    },
    "tel_const": {
        "newN_newL": {
            "sv_id": "new_num_new",
            "svname": "光コラボ新設と同時工事",
            "const_price": 1000
        },
        "newN_tranceL": {
            "sv_id": "new_num_trance",
            "svname": "光コラボ転用",
            "const_price": 5500
        },
        "tranceN_newL": {
            "sv_id": "tranceN_newL",
            "svname": "光コラボ新設と同時工事",
            "const_price": 3000,
            "pause_cost": 2000
        },
        "tranceN_tranceL": {
            "sv_id": "tranceN_tranceL",
            "svname": "光コラボ転用",
            "const_price": 7500,
            "pause_cost": 2000
        }
    },
    "telOps_const": {
        "number_porta": {
            "svname": "番号ポータビリティー工事費",
            "const_price": 2000
        },
        "extra_num": {
            "svname": "追加番号工事費",
            "const_price": 700
        },
        "aid_adapt4": {
            "svname": "アナログ/ISDN対応アダプタ（４チャネル用）工事費",
            "const_price": 7500,
            "pause_cost": 2000
        },
        "aid_adapt8": {
            "svname": "アナログ/ISDN対応アダプタ（８チャネル用）工事費",
            "const_price": 7500,
            "pause_cost": 2000
        }
    }
}


    "hikari_ops": [
    {
        "sv_id": "vw",
        "svname": "ボイスワープ",
        "svname_r": "着信転送East/West",
        "monthly_price": 500,
        "options": [
            {
                "hikari_std": 500,
                "hikari_a": 0,
                "hikari_o": 500,
                "hikari_oa": 0
            }
        ]
    },
    {
        "sv_id": "nd",
        "svname": "ナンバーディスプレイ",
        "svname_r": "ナンバー表示East/West",
        "monthly_price": [
            {
                "hikari_std": 400,
                "hikari_a": 0,
                "hikari_o": 1200,
                "hikari_oa": 0
            }
        ]
    },
    {
        "sv_id": "nr",
        "svname": "ナンバーリクエスト",
        "svname_r": "ナンバー・リクエストEast/West",
        "monthly_price": [
            {
                "hikari_std": 200,
                "hikari_a": 0,
                "hikari_o": 600,
                "hikari_oa": 0
            }
        ]
    },
    {
        "sv_id": "cp",
        "svname": "キャッチホン",
        "svname_r": "キャッチ接続East/West",
        "monthly_price": [
            {
                "hikari_std": 300,
                "hikari_a": 300,
                "hikari_o": 300,
                "hikari_oa": 300
            }
        ]
    },
    {
        "sv_id": "ro",
        "svname": "迷惑電話お断りサービス",
        "svname_r": "着信拒否East/West",
        "monthly_price": [
            {
                "hikari_std": 200,
                "hikari_a": 0,
                "hikari_o": 300,
                "hikari_oa": 0
            }
        ]
    },
    {
        "sv_id": "fm",
        "svname": "FAXお知らせメール",
        "svname_r": "FAXお知らせメールEast/West",
        "monthly_price": [
            {
                "hikari_std": 100,
                "hikari_a": 100,
                "hikari_o": 100,
                "hikari_oa": -1
            }
        ]
    },
    {
        "sv_id": "rm",
        "svname": "着信お知らせメール",
        "svname_r": "着信お知らせメールEast/West",
        "monthly_price": [
            {
                "hikari_std": 100,
                "hikari_a": 100,
                "hikari_o": 100,
                "hikari_oa": -1
            }
        ]
    },
    {
        "sv_id": "gd",
        "svname": "グループ通話定額",
        "svname_r": "グループ間内線電話East/West",
        "monthly_price": [
            {
                "hikari_std": 400,
                "hikari_a": 400,
                "hikari_o": 400,
                "hikari_oa": 0
            }
        ]
    },
    {
        "sv_id": "bt",
        "svname": "一括転送機能",
        "svname_r": "一括転送機能East/West",
        "monthly_price": [
            {
                "hikari_std": 3000,
                "hikari_a": 3000,
                "hikari_o": -1,
                "hikari_oa": 3000
            }
        ]
    },
    {
        "sv_id": "rp",
        "svname": "フリーアクセス・ひかりワイド",
        "svname_r": "着信課金East/West",
        "monthly_price": [
            {
                "hikari_std": -1,
                "hikari_a": -1,
                "hikari_o": 1000,
                "hikari_oa": 1000
            }
        ]
    },
    {
        "sv_id": "c4",
        "svname": "ひかり電話オフィスタイプ対応アダプタ（４チャンネル用）",
        "svname_r": "ひかり電話サービス　対応機器使用料（４チャンネル用）",
        "monthly_price": [
            {
                "hikari_std": -1,
                "hikari_a": -1,
                "hikari_o": 1000,
                "hikari_oa": 1500
            }
        ]
    },
    {
        "sv_id": "c8",
        "svname": "ひかり電話オフィスタイプ対応アダプタ（８チャンネル用）",
        "svname_r": "ひかり電話サービス　対応機器使用料（８チャンネル用）",
        "monthly_price": [
            {
                "hikari_std": -1,
                "hikari_a": -1,
                "hikari_o": 1000,
                "hikari_oa": 1500
            }
        ]
    }
],
"trance_const": [
    {
        "sv_id": "new_num_new",
        "svname": "新規番号（光コラボ新設工事と同時工事）",
        "initial_cost": 1000
    },
    {
        "sv_id": "new_num_tr",
        "svname": "新規番号（光コラボ転用）",
        "initial_cost": 5000
    },
    {
        "sv_id": "tr_num_new",
        "svname": "加入電話からの番号移行（光コラボ新設工事と同時工事）",
        "initial_cost": 1000
    },
    {
        "sv_id": "tr_num_new_pause",
        "svname": "加入電話休止工事費",
        "initial_cost": 2000
    },
    {
        "sv_id": "tr_num_new_pause",
        "svname": "番号ポータビリティ工事費",
        "initial_cost": 2000
    },
    {
        "sv_id": "tr_num_tr",
        "svname": "加入電話からの番号移行（光コラボ転用）",
        "initial_cost": 5500
    },
    {
        "sv_id": "tr_num_tr_pause",
        "svname": "加入電話休止工事費",
        "initial_cost": 2000
    },
    {
        "sv_id": "tr_num_tr_pause",
        "svname": "番号ポータビリティ工事費",
        "initial_cost": 2000
    }
],
"netprodcuts": [
    {
        "sv_id": "bbs",
        "svname": "BBパック Select"
    },
    {
        "sv_id": "bbn",
        "svname": "BBパック Next"
    },
    {
        "sv_id": "rns",
        "svname": "リモートネットワークサービス"
    }
]
}