{
    "line": [
        {
            "servicer":"NTT東日本",
            "svname": "フレッツ光ネクスト　ギガファミリー・スマートタイプ",
            "build_type":"戸建",
            "conv_type":"転用",
            "monthly_price": 5700
        },
        {
            "servicer":"NTT東日本",
            "svname": "フレッツ光ネクスト　ギガマンション・スマートタイプ（ミニ）",
            "build_type":"マンション",
            "conv_type":"転用",
            "monthly_price": 4350
        },
        {
            "servicer":"NTT東日本",
            "svname": "フレッツ光ネクスト　ギガマンション・スマートタイプ（プラン1）",
            "build_type":"マンション",
            "conv_type":"転用",
            "monthly_price": 3750
        },
        {
            "servicer":"NTT東日本",
            "svname": "フレッツ光ネクスト　ギガマンション・スマートタイプ（プラン２）",
            "build_type":"マンション",
            "conv_type":"転用",
            "monthly_price": 3350
        },
        {
            "servicer":"NTT東日本",
            "svname": "フレッツ光ネクスト　ファミリー・ギガラインタイプ",
            "build_type":"戸建",
            "conv_type":"転用",
            "monthly_price": 5400
        },
        {
            "servicer":"NTT東日本",
            "svname": "フレッツ光ネクスト　マンション・ギガラインタイプ（ミニ）",
            "build_type":"マンション",
            "conv_type":"転用",
            "monthly_price": 4050
        },
        {
            "servicer":"NTT東日本",
            "svname": "フレッツ光ネクスト　マンション・ギガラインタイプ（プラン1）",
            "build_type":"マンション",
            "conv_type":"転用",
            "monthly_price": 3450
        },
        {
            "servicer":"NTT東日本",
            "svname": "フレッツ光ネクスト　マンション・ギガラインタイプ（プラン２）",
            "build_type":"マンション",
            "conv_type":"転用",
            "monthly_price": 3050
        },
        {
            "servicer":"NTT東日本",
            "svname": "フレッツ光ネクスト　ファミリータイプ/ファミリーハイスピード",
            "build_type":"戸建",
            "conv_type":"転用",
            "monthly_price": 5200
        },
        {
            "servicer":"NTT東日本",
            "svname": "フレッツ光ネクスト　マンションタイプ/マンションハイスピード　VDSL方式/ひかり配線方式（ミニ）",
            "build_type":"マンション",
            "conv_type":"転用",
            "monthly_price": 3850
        },
        {
            "servicer":"NTT東日本",
            "svname": "フレッツ光ネクスト　マンションタイプ/マンションハイスピード　VDSL方式/ひかり配線方式（プラン1）",
            "build_type":"マンション",
            "conv_type":"転用",
            "monthly_price": 3250
        },
        {
            "servicer":"NTT東日本",
            "svname": "フレッツ光ネクスト　マンションタイプ/マンションハイスピード　VDSL方式/ひかり配線方式（プラン2）",
            "build_type":"マンション",
            "conv_type":"転用",
            "monthly_price": 2850
        },
        {
            "servicer":"NTT東日本",
            "svname": "フレッツ光ネクスト　マンションタイプ/マンションハイスピード　LAN方式（ミニ）",
            "build_type":"マンション",
            "conv_type":"転用",
            "monthly_price": 3500
        },
        {
            "servicer":"NTT東日本",
            "svname": "フレッツ光ネクスト　マンションタイプ/マンションハイスピード　LAN方式（プラン1）",
            "build_type":"マンション",
            "conv_type":"転用",
            "monthly_price": 2900
        },
        {
            "servicer":"NTT東日本",
            "svname": "フレッツ光ネクスト　マンションタイプ/マンションハイスピード　LAN方式（プラン2）",
            "build_type":"マンション",
            "conv_type":"転用",
            "monthly_price": 2500
        },
        {
            "servicer":"NTT東日本",
            "svname": "フレッツ 光ライト　ファミリータイプ",
            "build_type":"戸建",
            "conv_type":"タイプ変更＋転用",
            "monthly_price": 2800
        },


    ]
}